Estadística Descriptiva
…
## # A tibble: 3 x 3
##   origin      n porcentaje
##   <chr>   <int>      <dbl>
## 1 EWR    120835       35.9
## 2 JFK    111279       33.0
## 3 LGA    104662       31.1

flights %>% count(dest) %>% 
  mutate(porcentaje = n / sum(n) * 100) %>% 
  arrange(-n)

## # A tibble: 105 x 3
##    dest      n porcentaje
##    <chr> <int>      <dbl>
##  1 ORD   17283       5.13
##  2 ATL   17215       5.11
##  3 LAX   16174       4.80
##  4 BOS   15508       4.60
##  5 MCO   14082       4.18
##  6 CLT   14064       4.18
##  7 SFO   13331       3.96
##  8 FLL   12055       3.58
##  9 MIA   11728       3.48
## 10 DCA    9705       2.88
## # ... with 95 more rows
…
